id;timestamp;systolic;diastolic
1;2020-09-26;68340;14535
2;2020-09-27;94757;59470
3;2020-09-26;29537;85270
4;2020-09-27;57203;24575
5;2020-09-27;90887;37312
6;2020-09-26;79996;12371
7;2020-09-26;65537;16335
8;2020-09-27;64136;3779
9;2020-09-27;63360;82042
10;2020-09-26;35856;39254
