id;timestamp;weight
1;2020-09-26;32832
2;2020-09-27;17894
3;2020-09-27;44583
4;2020-09-27;2935
5;2020-09-26;7847
6;2020-09-27;23548
7;2020-09-27;8714
8;2020-09-26;620
9;2020-09-26;92367
10;2020-09-26;15689
