{
  "fluentMethods": true,
  "clientRootFolder": "",
  "relationships": [
    {
      "relationshipName": "user",
      "otherEntityName": "user",
      "relationshipType": "many-to-one",
      "otherEntityField": "login",
      "ownerSide": true,
      "otherEntityRelationshipName": "points"
    }
  ],
  "fields": [
    {
      "fieldName": "date",
      "fieldType": "LocalDate",
      "fieldValidateRules": ["required"]
    },
    {
      "fieldName": "exercise",
      "fieldType": "Integer"
    },
    {
      "fieldName": "meals",
      "fieldType": "Integer"
    },
    {
      "fieldName": "alcohol",
      "fieldType": "Integer"
    },
    {
      "fieldName": "notes",
      "fieldType": "String",
      "fieldValidateRules": ["maxlength"],
      "fieldValidateRulesMaxlength": "140"
    }
  ],
  "changelogDate": "20200927134827",
  "dto": "no",
  "searchEngine": "elasticsearch",
  "service": "no",
  "entityTableName": "points",
  "databaseType": "sql",
  "readOnly": false,
  "jpaMetamodelFiltering": false,
  "pagination": "pagination"
}
